<?xml version="1.0" encoding="UTF-8" standalone="no"?>
<!-- Created with Inkscape (http://www.inkscape.org/) -->

<svg
   xmlns:dc="http://purl.org/dc/elements/1.1/"
   xmlns:cc="http://creativecommons.org/ns#"
   xmlns:rdf="http://www.w3.org/1999/02/22-rdf-syntax-ns#"
   xmlns:svg="http://www.w3.org/2000/svg"
   xmlns="http://www.w3.org/2000/svg"
   xmlns:sodipodi="http://sodipodi.sourceforge.net/DTD/sodipodi-0.dtd"
   xmlns:inkscape="http://www.inkscape.org/namespaces/inkscape"
   width="87.458115mm"
   height="31.641275mm"
   viewBox="0 0 87.458117 31.641275"
   version="1.1"
   id="svg8"
   inkscape:version="0.92.2 (5c3e80d, 2017-08-06)"
   sodipodi:docname="DominatedWalk1.svg">
  <defs
     id="defs2">
    <marker
       inkscape:stockid="Arrow1Mend"
       orient="auto"
       refY="0"
       refX="0"
       id="Arrow1Mend"
       style="overflow:visible"
       inkscape:isstock="true">
      <path
         id="path5159"
         d="M 0,0 5,-5 -12.5,0 5,5 Z"
         style="fill:#ff0000;fill-opacity:0.43137255;fill-rule:evenodd;stroke:#ff0000;stroke-width:1.00000003pt;stroke-opacity:0.43137255"
         transform="matrix(-0.4,0,0,-0.4,-4,0)"
         inkscape:connector-curvature="0" />
    </marker>
    <inkscape:path-effect
       effect="bspline"
       id="path-effect6483"
       is_visible="true"
       weight="33.333333"
       steps="2"
       helper_size="0"
       apply_no_weight="true"
       apply_with_weight="true"
       only_selected="false" />
  </defs>
  <sodipodi:namedview
     id="base"
     pagecolor="#ffffff"
     bordercolor="#666666"
     borderopacity="1.0"
     inkscape:pageopacity="0.0"
     inkscape:pageshadow="2"
     inkscape:zoom="2.8"
     inkscape:cx="121.17493"
     inkscape:cy="90.487283"
     inkscape:document-units="mm"
     inkscape:current-layer="layer1"
     showgrid="false"
     fit-margin-top="0"
     fit-margin-left="0"
     fit-margin-right="0"
     fit-margin-bottom="0"
     inkscape:window-width="2256"
     inkscape:window-height="1394"
     inkscape:window-x="-12"
     inkscape:window-y="-12"
     inkscape:window-maximized="1" />
  <metadata
     id="metadata5">
    <rdf:RDF>
      <cc:Work
         rdf:about="">
        <dc:format>image/svg+xml</dc:format>
        <dc:type
           rdf:resource="http://purl.org/dc/dcmitype/StillImage" />
        <dc:title></dc:title>
      </cc:Work>
    </rdf:RDF>
  </metadata>
  <g
     inkscape:label="Ebene 1"
     inkscape:groupmode="layer"
     id="layer1"
     transform="translate(-22.250126,-105.65608)">
    <circle
       style="fill:#ffffff;stroke:#000000;stroke-width:0.26458332"
       id="path3701"
       cx="27.485096"
       cy="111.48444"
       r="5.1026788" />
    <text
       xml:space="preserve"
       style="font-style:normal;font-weight:normal;font-size:7.05555534px;line-height:1.25;font-family:sans-serif;letter-spacing:0px;word-spacing:0px;fill:#000000;fill-opacity:1;stroke:none;stroke-width:0.26458332"
       x="25.858326"
       y="113.25219"
       id="text3705"><tspan
         sodipodi:role="line"
         id="tspan3703"
         x="25.858326"
         y="113.25219"
         style="font-size:7.05555534px;stroke-width:0.26458332">s</tspan></text>
    <circle
       style="fill:#ffffff;stroke:#000000;stroke-width:0.26458332"
       id="path3701-6"
       cx="63.808636"
       cy="111.54264"
       r="5.1026788" />
    <text
       xml:space="preserve"
       style="font-style:normal;font-weight:normal;font-size:7.05555534px;line-height:1.25;font-family:sans-serif;letter-spacing:0px;word-spacing:0px;fill:#000000;fill-opacity:1;stroke:none;stroke-width:0.26458332"
       x="61.80389"
       y="113.40488"
       id="text3705-1"><tspan
         sodipodi:role="line"
         id="tspan3703-6"
         x="61.80389"
         y="113.40488"
         style="font-size:7.05555534px;stroke-width:0.26458332">v</tspan></text>
    <circle
       style="fill:#ffffff;stroke:#000000;stroke-width:0.26458332"
       id="path3701-0"
       cx="104.47327"
       cy="111.80989"
       r="5.1026788" />
    <text
       xml:space="preserve"
       style="font-style:normal;font-weight:normal;font-size:7.05555534px;line-height:1.25;font-family:sans-serif;letter-spacing:0px;word-spacing:0px;fill:#000000;fill-opacity:1;stroke:none;stroke-width:0.26458332"
       x="103.60246"
       y="114.05011"
       id="text3705-5"><tspan
         sodipodi:role="line"
         id="tspan3703-65"
         x="103.60246"
         y="114.05011"
         style="font-size:7.05555534px;stroke-width:0.26458332">t</tspan></text>
    <g
       transform="translate(44.120813,7.4411854)"
       id="g4571-6-4" />
    <path
       style="fill:none;stroke:#ff0000;stroke-width:0.86500001;stroke-linecap:butt;stroke-linejoin:miter;stroke-miterlimit:4;stroke-dasharray:none;stroke-opacity:0.43137255;marker-end:url(#Arrow1Mend)"
       d="m 30.030101,110.10977 c 2.646137,-1.79559 5.291967,-3.59098 7.386374,-3.95314 2.094408,-0.36217 3.637985,0.70888 4.504025,2.34526 0.86604,1.63638 1.055264,3.844 2.70398,4.34999 1.648717,0.50599 4.77722,-0.69486 8.052957,-1.30887 3.275737,-0.61401 6.772078,-0.64579 10.31544,-0.37806 3.543362,0.26772 7.165913,0.83473 10.630471,3.33865 3.464558,2.50392 6.772045,6.9454 6.756421,11.08729 -0.01563,4.14189 -3.354382,7.98462 -9.559816,9.85889 -6.205433,1.87427 -15.276197,1.77978 -19.607279,0.23618 -4.331083,-1.54359 -3.921619,-4.53582 -4.630275,-7.40188 -0.708656,-2.86607 -2.535723,-5.60667 -2.031618,-8.06357 0.504105,-2.4569 3.338988,-4.63031 5.200314,-5.93126 1.861325,-1.30094 2.800404,-1.75429 4.862939,-1.9747 2.062534,-0.22041 5.276451,-0.22041 7.622973,-0.12591 2.346522,0.0945 3.827051,0.2835 5.464756,0.78742 1.637705,0.50392 3.43337,1.323 5.968849,2.48837 2.53548,1.16538 5.811491,2.67738 9.024328,3.05531 3.212837,0.37792 6.362753,-0.37805 8.488734,-1.93721 2.125981,-1.55916 3.228518,-3.92175 4.204965,-5.13427 0.976447,-1.21252 1.827012,-1.27552 2.693008,-1.18104 0.865995,0.0945 1.748232,0.34656 2.630003,0.5985"
       id="path6481"
       inkscape:connector-curvature="0"
       inkscape:path-effect="#path-effect6483"
       inkscape:original-d="m 30.030101,110.10977 c 2.646098,-1.79565 5.291931,-3.59103 7.9375,-5.38616 1.54349,1.07055 3.08707,2.1416 4.630208,3.2128 0.157749,2.20452 0.378241,4.40946 0.566964,6.61459 3.118908,-1.16582 6.236872,-2.39412 9.35491,-3.59078 3.433199,-0.0633 6.929829,-0.0633 10.394347,-0.0945 3.622257,0.56665 7.244807,1.13366 10.866815,1.70089 3.307358,4.44069 6.614848,8.88217 9.921875,13.32366 -3.338557,3.84253 -6.677316,7.68525 -10.016371,11.52828 -9.071826,-0.0948 -18.14259,-0.18926 -27.214284,-0.28349 0.409752,-2.99266 0.819213,-5.98489 1.228423,-8.97693 -1.82644,-2.74032 -3.653505,-5.48092 -5.480655,-8.22098 2.835023,-2.17358 5.669906,-4.34699 8.504464,-6.52009 0.882118,-0.44119 1.827149,-0.88221 2.740327,-1.32292 3.211944,-2.6e-4 6.425861,-2.6e-4 9.638392,0 1.48055,0.18871 2.961079,0.37771 4.441222,0.56696 1.795375,0.81856 3.591039,1.63764 5.38616,2.45685 3.27584,1.51154 6.551853,3.02354 9.827381,4.53571 3.149952,-0.75619 6.299867,-1.51217 9.449403,-2.26785 1.102588,-2.36239 2.205128,-4.72497 3.307292,-7.08706 0.850598,-0.0632 1.70116,-0.12625 2.55134,-0.18899 0.881917,0.25164 1.764154,0.50371 2.645836,0.75596" />
  </g>
</svg>
