<?xml version="1.0" encoding="UTF-8" standalone="no"?>
<!-- Created with Inkscape (http://www.inkscape.org/) -->

<svg
   xmlns:dc="http://purl.org/dc/elements/1.1/"
   xmlns:cc="http://creativecommons.org/ns#"
   xmlns:rdf="http://www.w3.org/1999/02/22-rdf-syntax-ns#"
   xmlns:svg="http://www.w3.org/2000/svg"
   xmlns="http://www.w3.org/2000/svg"
   xmlns:sodipodi="http://sodipodi.sourceforge.net/DTD/sodipodi-0.dtd"
   xmlns:inkscape="http://www.inkscape.org/namespaces/inkscape"
   width="139.88921mm"
   height="93.58712mm"
   viewBox="0 0 139.88921 93.58712"
   version="1.1"
   id="svg8"
   inkscape:version="0.92.2 (5c3e80d, 2017-08-06)"
   sodipodi:docname="EV-Example4.svg">
  <defs
     id="defs2" />
  <sodipodi:namedview
     id="base"
     pagecolor="#ffffff"
     bordercolor="#666666"
     borderopacity="1.0"
     inkscape:pageopacity="0.0"
     inkscape:pageshadow="2"
     inkscape:zoom="2.8"
     inkscape:cx="229.09173"
     inkscape:cy="248.80251"
     inkscape:document-units="mm"
     inkscape:current-layer="g4571-6-4"
     showgrid="false"
     fit-margin-top="0"
     fit-margin-left="0"
     fit-margin-right="0"
     fit-margin-bottom="0"
     inkscape:window-width="2256"
     inkscape:window-height="1394"
     inkscape:window-x="-12"
     inkscape:window-y="-12"
     inkscape:window-maximized="1" />
  <metadata
     id="metadata5">
    <rdf:RDF>
      <cc:Work
         rdf:about="">
        <dc:format>image/svg+xml</dc:format>
        <dc:type
           rdf:resource="http://purl.org/dc/dcmitype/StillImage" />
        <dc:title></dc:title>
      </cc:Work>
    </rdf:RDF>
  </metadata>
  <g
     inkscape:label="Ebene 1"
     inkscape:groupmode="layer"
     id="layer1"
     transform="translate(-17.651381,-85.597804)">
    <circle
       style="fill:#ffffff;stroke:#000000;stroke-width:0.26458332"
       id="path3701"
       cx="27.485096"
       cy="111.48444"
       r="5.1026788" />
    <text
       xml:space="preserve"
       style="font-style:normal;font-weight:normal;font-size:7.05555534px;line-height:1.25;font-family:sans-serif;letter-spacing:0px;word-spacing:0px;fill:#000000;fill-opacity:1;stroke:none;stroke-width:0.26458332"
       x="25.858326"
       y="113.25219"
       id="text3705"><tspan
         sodipodi:role="line"
         id="tspan3703"
         x="25.858326"
         y="113.25219"
         style="font-size:7.05555534px;stroke-width:0.26458332">s</tspan></text>
    <circle
       style="fill:#ffffff;stroke:#000000;stroke-width:0.26458332"
       id="path3701-6"
       cx="62.674706"
       cy="111.44814"
       r="5.1026788" />
    <text
       xml:space="preserve"
       style="font-style:normal;font-weight:normal;font-size:7.05555534px;line-height:1.25;font-family:sans-serif;letter-spacing:0px;word-spacing:0px;fill:#000000;fill-opacity:1;stroke:none;stroke-width:0.26458332"
       x="60.66996"
       y="113.31039"
       id="text3705-1"><tspan
         sodipodi:role="line"
         id="tspan3703-6"
         x="60.66996"
         y="113.31039"
         style="font-size:7.05555534px;stroke-width:0.26458332">v</tspan></text>
    <circle
       style="fill:#ffffff;stroke:#000000;stroke-width:0.26458332"
       id="path3701-7"
       cx="98.956543"
       cy="111.38131"
       r="5.1026788" />
    <text
       xml:space="preserve"
       style="font-style:normal;font-weight:normal;font-size:7.05555534px;line-height:1.25;font-family:sans-serif;letter-spacing:0px;word-spacing:0px;fill:#000000;fill-opacity:1;stroke:none;stroke-width:0.26458332"
       x="96.006859"
       y="113.43255"
       id="text3705-9"><tspan
         sodipodi:role="line"
         id="tspan3703-5"
         x="96.006859"
         y="113.43255"
         style="font-size:7.05555534px;stroke-width:0.26458332">w</tspan></text>
    <circle
       style="fill:#ffffff;stroke:#000000;stroke-width:0.26458332"
       id="path3701-0"
       cx="133.29396"
       cy="111.05394"
       r="5.1026788" />
    <text
       xml:space="preserve"
       style="font-style:normal;font-weight:normal;font-size:7.05555534px;line-height:1.25;font-family:sans-serif;letter-spacing:0px;word-spacing:0px;fill:#000000;fill-opacity:1;stroke:none;stroke-width:0.26458332"
       x="132.42314"
       y="113.29416"
       id="text3705-5"><tspan
         sodipodi:role="line"
         id="tspan3703-65"
         x="132.42314"
         y="113.29416"
         style="font-size:7.05555534px;stroke-width:0.26458332">t</tspan></text>
    <g
       id="g4571">
      <rect
         y="110.51268"
         x="34.745041"
         height="1.6704345"
         width="17.439337"
         id="rect3750"
         style="fill:#ffffff;stroke:#000000;stroke-width:0.26458332" />
      <path
         transform="matrix(0.40001492,0,0,0.4862157,39.609059,63.454846)"
         inkscape:transform-center-y="-2.7109394e-006"
         inkscape:transform-center-x="-0.43775959"
         d="m 31.353609,102.47698 0,-3.790968 0,-3.790966 3.283073,1.895483 3.283073,1.895483 -3.283073,1.895488 z"
         inkscape:randomized="0"
         inkscape:rounded="0"
         inkscape:flatsided="false"
         sodipodi:arg2="3.1415927"
         sodipodi:arg1="2.0943951"
         sodipodi:r2="2.1887155"
         sodipodi:r1="4.3774309"
         sodipodi:cy="98.686012"
         sodipodi:cx="33.542324"
         sodipodi:sides="3"
         id="path3752"
         style="fill:#e6e6e6;stroke:#000000;stroke-width:0.51472265;stroke-miterlimit:4;stroke-dasharray:none"
         sodipodi:type="star" />
    </g>
    <g
       transform="translate(36.183313,-0.30732647)"
       id="g4571-6">
      <rect
         y="110.51268"
         x="34.745041"
         height="1.6704345"
         width="17.439337"
         id="rect3750-5"
         style="fill:#ffffff;stroke:#000000;stroke-width:0.26458332" />
      <path
         transform="matrix(0.40001492,0,0,0.4862157,39.609059,63.454846)"
         inkscape:transform-center-y="-2.7109394e-006"
         inkscape:transform-center-x="-0.43775959"
         d="m 31.353609,102.47698 0,-3.790968 0,-3.790966 3.283073,1.895483 3.283073,1.895483 -3.283073,1.895488 z"
         inkscape:randomized="0"
         inkscape:rounded="0"
         inkscape:flatsided="false"
         sodipodi:arg2="3.1415927"
         sodipodi:arg1="2.0943951"
         sodipodi:r2="2.1887155"
         sodipodi:r1="4.3774309"
         sodipodi:cy="98.686012"
         sodipodi:cx="33.542324"
         sodipodi:sides="3"
         id="path3752-7"
         style="fill:#e6e6e6;stroke:#000000;stroke-width:0.51472265;stroke-miterlimit:4;stroke-dasharray:none"
         sodipodi:type="star" />
    </g>
    <g
       transform="translate(71.429592,-0.30732647)"
       id="g4571-2">
      <rect
         y="110.51268"
         x="34.745041"
         height="1.6704345"
         width="17.439337"
         id="rect3750-1"
         style="fill:#ffffff;stroke:#000000;stroke-width:0.26458332" />
      <path
         transform="matrix(0.40001492,0,0,0.4862157,39.609059,63.454846)"
         inkscape:transform-center-y="-2.7109394e-006"
         inkscape:transform-center-x="-0.43775959"
         d="m 31.353609,102.47698 0,-3.790968 0,-3.790966 3.283073,1.895483 3.283073,1.895483 -3.283073,1.895488 z"
         inkscape:randomized="0"
         inkscape:rounded="0"
         inkscape:flatsided="false"
         sodipodi:arg2="3.1415927"
         sodipodi:arg1="2.0943951"
         sodipodi:r2="2.1887155"
         sodipodi:r1="4.3774309"
         sodipodi:cy="98.686012"
         sodipodi:cx="33.542324"
         sodipodi:sides="3"
         id="path3752-2"
         style="fill:#e6e6e6;stroke:#000000;stroke-width:0.51472265;stroke-miterlimit:4;stroke-dasharray:none"
         sodipodi:type="star" />
    </g>
    <circle
       style="fill:#ffffff;stroke:#000000;stroke-width:0.26458332"
       id="path3701-6-6"
       cx="81.170387"
       cy="132.29688"
       r="5.1026788" />
    <g
       transform="translate(44.120813,7.4411854)"
       id="g4571-6-4">
      <g
         id="g4642"
         transform="matrix(-0.44664443,0.5479066,-0.77509503,-0.63184468,152.32355,160.32357)"
         style="stroke-width:1.18938982">
        <rect
           style="fill:#ffffff;stroke:#000000;stroke-width:0.31469271"
           id="rect3750-5-5"
           width="17.439337"
           height="1.6704345"
           x="34.745041"
           y="110.51268" />
        <path
           sodipodi:type="star"
           style="fill:#e6e6e6;stroke:#000000;stroke-width:0.61220586;stroke-miterlimit:4;stroke-dasharray:none"
           id="path3752-7-0"
           sodipodi:sides="3"
           sodipodi:cx="33.542324"
           sodipodi:cy="98.686012"
           sodipodi:r1="4.3774309"
           sodipodi:r2="2.1887155"
           sodipodi:arg1="2.0943951"
           sodipodi:arg2="3.1415927"
           inkscape:flatsided="false"
           inkscape:rounded="0"
           inkscape:randomized="0"
           d="m 31.353609,102.47698 0,-3.790968 0,-3.790966 3.283073,1.895483 3.283073,1.895483 -3.283073,1.895488 z"
           inkscape:transform-center-x="-0.43775959"
           inkscape:transform-center-y="-2.7109394e-006"
           transform="matrix(0.40001492,0,0,0.4862157,39.609059,63.454846)" />
      </g>
      <g
         id="g4642-4"
         transform="matrix(-0.44664442,-0.5479066,-0.77509502,0.63184468,133.52402,68.786331)"
         style="stroke-width:1.18938982">
        <rect
           style="fill:#ffffff;stroke:#000000;stroke-width:0.31469271"
           id="rect3750-5-5-3"
           width="17.439337"
           height="1.6704345"
           x="34.745041"
           y="110.51268" />
        <path
           sodipodi:type="star"
           style="fill:#e6e6e6;stroke:#000000;stroke-width:0.61220586;stroke-miterlimit:4;stroke-dasharray:none"
           id="path3752-7-0-3"
           sodipodi:sides="3"
           sodipodi:cx="33.542324"
           sodipodi:cy="98.686012"
           sodipodi:r1="4.3774309"
           sodipodi:r2="2.1887155"
           sodipodi:arg1="2.0943951"
           sodipodi:arg2="3.1415927"
           inkscape:flatsided="false"
           inkscape:rounded="0"
           inkscape:randomized="0"
           d="m 31.353609,102.47698 0,-3.790968 0,-3.790966 3.283073,1.895483 3.283073,1.895483 -3.283073,1.895488 z"
           inkscape:transform-center-x="-0.43775959"
           inkscape:transform-center-y="-2.7109394e-006"
           transform="matrix(0.40001492,0,0,0.4862157,39.609059,63.454846)" />
      </g>
      <text
         xml:space="preserve"
         style="font-style:normal;font-weight:normal;font-size:10.58333302px;line-height:1.25;font-family:sans-serif;letter-spacing:0px;word-spacing:0px;fill:#ffc800;fill-opacity:1;stroke:none;stroke-width:0.26458332"
         x="34.687222"
         y="127.02906"
         id="text4667"><tspan
           sodipodi:role="line"
           id="tspan4665"
           x="34.687222"
           y="127.02906"
           style="font-size:5.64444447px;fill:#ffc800;fill-opacity:1;stroke-width:0.26458332">⚡</tspan></text>
      <rect
         style="fill:#ffffff;fill-opacity:1;stroke:#000000;stroke-width:0.227;stroke-miterlimit:4;stroke-dasharray:none"
         id="rect4744"
         width="59.772259"
         height="23.064213"
         x="45.596512"
         y="124.18656" />
      <text
         xml:space="preserve"
         style="font-style:normal;font-weight:normal;font-size:5.64444447px;line-height:1.25;font-family:sans-serif;letter-spacing:0px;word-spacing:0px;fill:#000000;fill-opacity:1;stroke:none;stroke-width:0.26458332"
         x="46.971447"
         y="130.61983"
         id="text4748"><tspan
           sodipodi:role="line"
           id="tspan4746"
           x="46.971447"
           y="130.61983"
           style="font-style:normal;font-variant:normal;font-weight:bold;font-stretch:normal;font-size:5.64444447px;font-family:sans-serif;-inkscape-font-specification:'sans-serif Bold';stroke-width:0.26458332">Modes:</tspan><tspan
           sodipodi:role="line"
           x="46.971447"
           y="137.67538"
           style="font-size:5.64444447px;stroke-width:0.26458332"
           id="tspan4750">A: Fast -  79 Ct/kWh</tspan><tspan
           sodipodi:role="line"
           x="46.971447"
           y="144.73094"
           style="font-size:5.64444447px;stroke-width:0.26458332"
           id="tspan4752">B: Slow - 35 Ct/kWh</tspan></text>
      <text
         xml:space="preserve"
         style="font-style:normal;font-weight:normal;font-size:12px;line-height:1.25;font-family:sans-serif;letter-spacing:0px;word-spacing:0px;baseline-shift:baseline;fill:#000000;fill-opacity:1;stroke:none;stroke-width:0.26458332"
         x="-20.655499"
         y="89.61853"
         id="text4671-6"><tspan
           sodipodi:role="line"
           id="tspan4669-8"
           x="-20.655499"
           y="89.61853"
           style="font-style:italic;font-variant:normal;font-weight:normal;font-stretch:normal;font-size:5.64444447px;font-family:'Cambria Math';-inkscape-font-specification:'Cambria Math Italic';stroke-width:0.26458332">b<tspan
   style="font-size:65%;baseline-shift:sub"
   id="tspan5806">i</tspan> = b<tspan
   style="font-size:64.99999762%;baseline-shift:sub"
   id="tspan4777">i,</tspan><tspan
   id="tspan4785"
   style="font-style:normal;font-variant:normal;font-weight:normal;font-stretch:normal;font-size:64.99999762%;font-family:'Cambria Math';-inkscape-font-specification:'Cambria Math';baseline-shift:sub">max</tspan> = <tspan
   style="-inkscape-font-specification:'Cambria Math';font-family:'Cambria Math';font-weight:normal;font-style:normal;font-stretch:normal;font-variant:normal"
   id="tspan5810">40</tspan></tspan></text>
      <text
         id="text4671"
         y="101.13768"
         x="-9.1580133"
         style="font-style:normal;font-weight:normal;font-size:12px;line-height:1.25;font-family:sans-serif;letter-spacing:0px;word-spacing:0px;baseline-shift:baseline;fill:#000000;fill-opacity:1;stroke:none;stroke-width:0.26458332"
         xml:space="preserve"><tspan
           style="font-style:italic;font-variant:normal;font-weight:normal;font-stretch:normal;font-size:5.64444447px;font-family:'Cambria Math';-inkscape-font-specification:'Cambria Math Italic';stroke-width:0.26458332"
           y="101.13768"
           x="-9.1580133"
           id="tspan4669"
           sodipodi:role="line">b<tspan
   style="font-size:3.66888881px;baseline-shift:sub;stroke-width:0.26458332"
   id="tspan5029">i,e </tspan>= <tspan
   style="font-style:normal;font-variant:normal;font-weight:normal;font-stretch:normal;font-family:'Cambria Math';-inkscape-font-specification:'Cambria Math';stroke-width:0.26458332"
   id="tspan5814">20</tspan></tspan></text>
      <text
         id="text4671-0"
         y="101.78925"
         x="32.752647"
         style="font-style:normal;font-weight:normal;font-size:12px;line-height:1.25;font-family:sans-serif;letter-spacing:0px;word-spacing:0px;baseline-shift:baseline;fill:#000000;fill-opacity:1;stroke:none;stroke-width:0.26458332"
         xml:space="preserve"><tspan
           style="font-style:normal;font-variant:normal;font-weight:normal;font-stretch:normal;font-size:5.64444447px;font-family:'Cambria Math';-inkscape-font-specification:'Cambria Math';stroke-width:0.26458332"
           y="101.78925"
           x="32.752647"
           id="tspan4669-1"
           sodipodi:role="line">10</tspan></text>
      <text
         id="text4671-0-0"
         y="101.69579"
         x="69.349785"
         style="font-style:normal;font-weight:normal;font-size:12px;line-height:1.25;font-family:sans-serif;letter-spacing:0px;word-spacing:0px;baseline-shift:baseline;fill:#000000;fill-opacity:1;stroke:none;stroke-width:0.26458332"
         xml:space="preserve"><tspan
           style="font-style:normal;font-variant:normal;font-weight:normal;font-stretch:normal;font-size:5.64444447px;font-family:'Cambria Math';-inkscape-font-specification:'Cambria Math';stroke-width:0.26458332"
           y="101.69579"
           x="69.349785"
           id="tspan4669-1-3"
           sodipodi:role="line">20</tspan></text>
    </g>
  </g>
</svg>
